E1.1
150:0
E10.1
151:4
E21.1
152:8
E29.3
153:12
E36.2
155:0
E1.2
150:1
E10.2
151:5
E22.1
152:9
E30.1
153:13
E37.1
155:1
E2.1
150:2
E11.1
151:6
E23.1
152:10
E30.2
153:14
E37.2
155:2
E2.2
150:3
E11.2
151:7
E23.2
152:11
E30.3
153:15
E38.1
155:3
E3.1
150:4
E12.1
151:8
E24.1
152:12
E31.1
154:0
E38.2
155:4
E3.2
150:5
E12.2
151:9
E24.2
152:13
E31.2
154:1
E39.1
155:5
E4.1
150:6
E13.1
151:10
E25.1
152:14
E31.3
154:2
E39.2
155:6
E4.2
150:7
E13.2
151:11
E25.2
152:15
E32.1
154:3
E40.1
155:7
E5.1
150:8
E14.1
151:12
E25.3
153:0
E32.2
154:4
E40.2
155:8
E5.2
150:9
E14.2
151:13
E26.1
153:1
E32.3
154:5
E41.1
155:9
E6.1
150:10
E15.1
151:14
E26.2
153:2
E33.1
154:6
E41.2
155:10
E6.2
150:11
E15.2
151:15
E26.3
153:3
E33.2
154:7
E42.1
155:11
E6.3
150:12
E16.1
152:0
E27.1
153:4
E33.3
154:8
E42.2
155:12
E7.1
150:13
E16.2
152:1
E27.2
153:5
E34.1
154:9
E43.1
155:13
E7.2
150:14
E17.1
152:2
E27.3
153:6
E34.2
154:10
E43.2
155:14
E7.3
150:15
E17.2
152:3
E28.1
153:7
E34.3
154:11
E43.3
155:15
E8.1
151:0
E18.1
152:4
E28.2
153:8
E35.1
154:12
E43.4
156:0
E8.2
151:1
E18.2
152:5
E28.3
153:9
E35.2
154:13
E44.1
156:1
E9.1
151:2
E19.1
152:6
E29.1
153:10
E35.3
154:14
E44.2
156:2
E9.2
151:3
E20.1
152:7
E29.2
153:11
E36.1
154:15
E44.3
156:3
E45.1
156:4
E54.1
157:8
E64.1
158:12
E70.2
160:0
E80.2
161:4
E45.2
156:5
E54.2
157:9
E64.2
158:13
E71.1
160:1
E81.1
161:5
E45.3
156:6
E55.1
157:10
E64.3
158:14
E71.2
160:2
E81.2
161:6
E46.1
156:7
E55.2
157:11
E64.4
158:15
E72.1
160:3
E82.1
161:7
E46.2
156:8
E56.1
157:12
E65.1
159:0
E72.2
160:4
E82.2
161:8
E46.3
156:9
E56.2
157:13
E65.2
159:1
E73.1
160:5
E83.1
161:9
E47.1
156:10
E57.1
157:14
E65.3
159:2
E73.2
160:6
E83.2
161:10
E47.2
156:11
E57.2
157:15
E65.4
159:3
E74.1
160:7
E84.1
161:11
E48.1
156:12
E58.1
158:0
E66.1
159:4
E74.2
160:8
E84.2
161:12
E48.2
156:13
E58.2
158:1
E66.2
159:5
E75.1
160:9
E85.1
161:13
E49.1
156:14
E59.1
158:2
E66.3
159:6
E75.2
160:10
E85.2
161:14
E49.2
156:15
E59.2
158:3
E66.4
159:7
E76.1
160:11
E86.1
161:15
E50.1
157:0
E60.1
158:4
E67.1
159:8
E76.2
160:12
E86.2
162:0
E50.2
157:1
E60.2
158:5
E67.2
159:9
E77.1
160:13
E87.1
162:1
E51.1
157:2
E61.1
158:6
E67.3
159:10
E77.2
160:14
E87.2
162:2
E51.2
157:3
E61.2
158:7
E67.4
159:11
E78.1
160:15
E88.1
162:3
E52.1
157:4
E62.1
158:8
E68.1
159:12
E78.2
161:0
E88.2
162:4
E52.2
157:5
E62.2
158:9
E69.1
159:13
E79.1
161:1
E89.1
162:5
E53.1
157:6
E63.1
158:10
E69.2
159:14
E79.2
161:2
E89.2
162:6
E53.2
157:7
E63.2
158:11
E70.1
159:15
E80.1
161:3
E90.1
162:7
E90.1
162:8
E90.2
162:9
E91.1
162:10
E92.1
162:11
E93.1
162:12
E94.1	
163:0
E95.1	
163:1
E96.1	
163:2
E97.1	
163:3
E98.1	
163:4
E99.1	
163:5
E100.1	
163:6
E101.1	
163:7
E102.1	
163:8
E103.1	
163:9
E104.1	
163:10
E105.1	
163:11
E106.1	
163:12
E107.1	
163:13
E108.1	
163:14
E109.1	
163:15
E110.1	
164:0
E111.1	
164:1
E112.1	
164:2
E113.1	
164:3
E114.1	
164:4
E115.1	
164:5
E116.1	
164:6
E117.1	
164:7
E118.1	
164:8
E119.1	
164:9
E120.1	
164:10
E121.1	
164:11
E122.1	
164:12
E123.1	
164:13
E124.1	
164:14
E125.1	
164:15
E126.1	
165:0
E127.1	
165:1
E128.1	
165:2
E129.1	
165:3
E130.1	
165:4
E131.1	
165:5
E132.1	
165:6
E133.1	
165:7
E134.1	
165:8
E135.1	
165:9
E136.1	
165:10
E137.1	
165:11
E138.1	
165:12
E139.1	
165:13
E140.1	
165:14
E141.1	
165:15
E142.1	
166:0
E143.1	
166:1
E144.1	
166:2
E145.1	
166:3
E146.1	
166:4
E147.1	
166:5
E148.1	
166:6
E149.1	
166:7
E150.1	
166:8
E151.1	
166:9
E152.1	
166:10
E153.1	
166:11
E154.1	
166:12
E155.1	
166:13
E156.1	
166:14
E157.1	
166:15
E158.1	
167:0
E159.1
167:1
