<?xml version="1.0" encoding="UTF-8" standalone="no"?>
<!-- Created with Inkscape (http://www.inkscape.org/) -->

<svg
   xmlns:dc="http://purl.org/dc/elements/1.1/"
   xmlns:cc="http://creativecommons.org/ns#"
   xmlns:rdf="http://www.w3.org/1999/02/22-rdf-syntax-ns#"
   xmlns:svg="http://www.w3.org/2000/svg"
   xmlns="http://www.w3.org/2000/svg"
   xmlns:sodipodi="http://sodipodi.sourceforge.net/DTD/sodipodi-0.dtd"
   xmlns:inkscape="http://www.inkscape.org/namespaces/inkscape"
   id="svg4495"
   version="1.1"
   inkscape:version="0.48.4 r9939"
   width="24"
   height="12"
   sodipodi:docname="avt_on_big.svg">
  <metadata
     id="metadata4501">
    <rdf:RDF>
      <cc:Work
         rdf:about="">
        <dc:format>image/svg+xml</dc:format>
        <dc:type
           rdf:resource="http://purl.org/dc/dcmitype/StillImage" />
        <dc:title></dc:title>
      </cc:Work>
    </rdf:RDF>
  </metadata>
  <defs
     id="defs4499" />
  <sodipodi:namedview
     pagecolor="#ffffff"
     bordercolor="#666666"
     borderopacity="1"
     objecttolerance="10"
     gridtolerance="10"
     guidetolerance="10"
     inkscape:pageopacity="0"
     inkscape:pageshadow="2"
     inkscape:window-width="1327"
     inkscape:window-height="713"
     id="namedview4497"
     showgrid="false"
     inkscape:zoom="8.7604166"
     inkscape:cx="21.190367"
     inkscape:cy="-3.6759514"
     inkscape:window-x="39"
     inkscape:window-y="27"
     inkscape:window-maximized="1"
     inkscape:current-layer="g8580-9" />
  <g
     id="g8580-9"
     transform="matrix(2.1247336,0,0,2.1247336,2168.6587,548.25565)"
     inkscape:export-filename="/home/pv/Projects/mpu.balsam/src/GUI/images/avt_on.png"
     inkscape:export-xdpi="90"
     inkscape:export-ydpi="90"
     style="fill:#008000;fill-opacity:1">
    <path
       inkscape:export-ydpi="90"
       inkscape:export-xdpi="90"
       inkscape:export-filename="/home/pv/Projects/mpu/src/GUI/images/Automat/avt_on.png"
       transform="matrix(0,-0.15008199,0.16159644,0,-1061.3968,175.71077)"
       d="m 2864.4896,259.79434 a 5.6568542,6.1871843 0 1 1 -11.3137,0 5.6568542,6.1871843 0 1 1 11.3137,0 z"
       sodipodi:ry="6.1871843"
       sodipodi:rx="5.6568542"
       sodipodi:cy="259.79434"
       sodipodi:cx="2858.8328"
       id="path8582-3"
       style="fill:#008000;fill-opacity:1;fill-rule:nonzero;stroke:#000000;stroke-width:1.31468427;stroke-miterlimit:4;stroke-opacity:1;stroke-dasharray:none;stroke-dashoffset:0"
       sodipodi:type="arc" />
    <path
       inkscape:export-ydpi="90"
       inkscape:export-xdpi="90"
       inkscape:export-filename="/home/pv/Projects/mpu/src/GUI/images/Automat/avt_on.png"
       transform="matrix(0,-0.15008199,-0.1634108,0,-977.10605,175.50619)"
       d="m 2864.4896,259.79434 a 5.6568542,6.1871843 0 1 1 -11.3137,0 5.6568542,6.1871843 0 1 1 11.3137,0 z"
       sodipodi:ry="6.1871843"
       sodipodi:rx="5.6568542"
       sodipodi:cy="259.79434"
       sodipodi:cx="2858.8328"
       id="path8584-6"
       style="fill:#008000;fill-opacity:1;fill-rule:nonzero;stroke:#1a1a1a;stroke-width:1.31468427;stroke-miterlimit:4;stroke-opacity:1;stroke-dasharray:none;stroke-dashoffset:0"
       sodipodi:type="arc" />
    <path
       inkscape:export-ydpi="90"
       inkscape:export-xdpi="90"
       inkscape:export-filename="/home/pv/Projects/mpu/src/GUI/images/Automat/avt_on.png"
       transform="matrix(0,-0.15008199,0.16159644,0,-1052.4617,175.72081)"
       d="m 2864.4896,259.79434 a 5.6568542,6.1871843 0 1 1 -11.3137,0 5.6568542,6.1871843 0 1 1 11.3137,0 z"
       sodipodi:ry="6.1871843"
       sodipodi:rx="5.6568542"
       sodipodi:cy="259.79434"
       sodipodi:cx="2858.8328"
       id="path8586-2"
       style="fill:#008000;fill-opacity:1;fill-rule:nonzero;stroke:#000000;stroke-width:1.31468427;stroke-miterlimit:4;stroke-opacity:1;stroke-dasharray:none;stroke-dashoffset:0"
       sodipodi:type="arc" />
    <path
       inkscape:export-ydpi="90"
       inkscape:export-xdpi="90"
       inkscape:export-filename="/home/pv/Projects/mpu/src/GUI/images/Automat/avt_on.png"
       transform="matrix(0,-0.15008199,0.1634108,0,-1053.0253,175.50619)"
       d="m 2864.4896,259.79434 a 5.6568542,6.1871843 0 1 1 -11.3137,0 5.6568542,6.1871843 0 1 1 11.3137,0 z"
       sodipodi:ry="6.1871843"
       sodipodi:rx="5.6568542"
       sodipodi:cy="259.79434"
       sodipodi:cx="2858.8328"
       id="path8588-1"
       style="fill:#008000;fill-opacity:1;fill-rule:nonzero;stroke:#1a1a1a;stroke-width:1.31468427;stroke-miterlimit:4;stroke-opacity:1;stroke-dasharray:none;stroke-dashoffset:0"
       sodipodi:type="arc" />
    <g
       id="g8590-2"
       transform="matrix(0.49819195,0,0,0.48731636,-714.9785,-124.1061)"
       inkscape:export-filename="/home/pv/Projects/mpu/src/GUI/images/Automat/avt_on.png"
       inkscape:export-xdpi="90"
       inkscape:export-ydpi="90"
       style="fill:#008000;fill-opacity:1;stroke:none">
      <path
         inkscape:connector-curvature="0"
         inkscape:export-ydpi="90"
         inkscape:export-xdpi="90"
         inkscape:export-filename="/home/pv/Projects/mpu/src/GUI/images/schema.png"
         sodipodi:nodetypes="ccccc"
         id="path8592-5"
         d="m -595.95687,-264.19655 0,-2.40274 -12.50431,0 0,2.40274 12.50431,0 z"
         style="fill:#008000;fill-opacity:1;fill-rule:nonzero;stroke:none;stroke-width:15;marker:none;visibility:visible;display:inline;overflow:visible;enable-background:accumulate" />
      <path
         inkscape:connector-curvature="0"
         inkscape:export-ydpi="90"
         inkscape:export-xdpi="90"
         inkscape:export-filename="/home/pv/Projects/mpu/src/GUI/images/schema.png"
         style="fill:#008000;fill-opacity:1;fill-rule:nonzero;stroke:#000000;stroke-width:0.5;stroke-miterlimit:4;stroke-opacity:1;stroke-dasharray:none;marker:none;visibility:visible;display:inline;overflow:visible;enable-background:accumulate"
         d="m -596.23641,-264.56723 0,-2.238 -12.43949,0 0,2.238 12.43949,0 z"
         id="path8594-3"
         sodipodi:nodetypes="ccccc" />
    </g>
  </g>
</svg>
