<?xml version="1.0" encoding="UTF-8" standalone="no"?>
<!-- Created with Inkscape (http://www.inkscape.org/) -->

<svg
   xmlns:dc="http://purl.org/dc/elements/1.1/"
   xmlns:cc="http://creativecommons.org/ns#"
   xmlns:rdf="http://www.w3.org/1999/02/22-rdf-syntax-ns#"
   xmlns:svg="http://www.w3.org/2000/svg"
   xmlns="http://www.w3.org/2000/svg"
   xmlns:sodipodi="http://sodipodi.sourceforge.net/DTD/sodipodi-0.dtd"
   xmlns:inkscape="http://www.inkscape.org/namespaces/inkscape"
   id="svg4495"
   version="1.1"
   inkscape:version="0.48.4 r9939"
   width="24"
   height="48"
   sodipodi:docname="avt_v_off_big.svg">
  <metadata
     id="metadata4501">
    <rdf:RDF>
      <cc:Work
         rdf:about="">
        <dc:format>image/svg+xml</dc:format>
        <dc:type
           rdf:resource="http://purl.org/dc/dcmitype/StillImage" />
        <dc:title />
      </cc:Work>
    </rdf:RDF>
  </metadata>
  <defs
     id="defs4499" />
  <sodipodi:namedview
     pagecolor="#ffffff"
     bordercolor="#666666"
     borderopacity="1"
     objecttolerance="10"
     gridtolerance="10"
     guidetolerance="10"
     inkscape:pageopacity="0"
     inkscape:pageshadow="2"
     inkscape:window-width="1920"
     inkscape:window-height="1011"
     id="namedview4497"
     showgrid="false"
     inkscape:zoom="6.19455"
     inkscape:cx="-1.2209156"
     inkscape:cy="22.625717"
     inkscape:window-x="-3"
     inkscape:window-y="-3"
     inkscape:window-maximized="1"
     inkscape:current-layer="svg4495"
     fit-margin-top="0"
     fit-margin-left="0"
     fit-margin-right="0"
     fit-margin-bottom="0" />
  <a
     id="a8535"
     transform="matrix(0,2.1128217,-2.3335869,0,-603.06751,2156.5749)"
     inkscape:export-filename="/home/pv/Projects/mpu/src/GUI/images/Automat/avt_off.png"
     inkscape:export-xdpi="90"
     inkscape:export-ydpi="90">
    <g
       id="g6713-3-3"
       transform="translate(-417.03417,57.679885)">
      <g
         transform="matrix(0.44598027,0,0,0.38715071,-935.31498,-391.7751)"
         id="g9571-8-9-0-4-6-90"
         inkscape:export-filename="/home/pv/Projects/mpu/src/GUI/images/schema.png"
         inkscape:export-xdpi="90"
         inkscape:export-ydpi="90">
        <g
           id="g9573-8-6-3-2-1-7"
           transform="translate(-280.40556,146.42987)"
           style="fill:#000000;stroke:#000000">
          <rect
             inkscape:transform-center-y="-10.700297"
             inkscape:transform-center-x="-16.896796"
             transform="matrix(-0.53502,-0.8448394,0.8448394,-0.53502,0,0)"
             inkscape:export-ydpi="90"
             inkscape:export-xdpi="90"
             inkscape:export-filename="/home/pv/Desktop/prewiev/sesB3.png"
             y="854.14374"
             x="-590.74347"
             height="25"
             width="5"
             id="rect9575-3-3-6-2-0-2"
             style="fill:#000000;fill-opacity:1;fill-rule:nonzero;stroke:#000000;stroke-width:1;stroke-miterlimit:4;stroke-opacity:1;stroke-dasharray:none;stroke-dashoffset:0" />
          <path
             inkscape:export-ydpi="90"
             inkscape:export-xdpi="90"
             inkscape:export-filename="/home/pv/Desktop/prewiev/sesB3.png"
             transform="matrix(0,-0.7954951,-0.7273098,0,1218.951,2318.1875)"
             d="m 2864.4896,259.79434 c 0,3.41709 -2.5326,6.18719 -5.6568,6.18719 -3.1242,0 -5.6569,-2.7701 -5.6569,-6.18719 0,-3.41709 2.5327,-6.18718 5.6569,-6.18718 3.1242,0 5.6568,2.77009 5.6568,6.18718 z"
             sodipodi:ry="6.1871843"
             sodipodi:rx="5.6568542"
             sodipodi:cy="259.79434"
             sodipodi:cx="2858.8328"
             id="path9577-1-8-1-6-6-7"
             style="fill:#000000;fill-opacity:1;fill-rule:nonzero;stroke:#000000;stroke-width:1.31468427;stroke-miterlimit:4;stroke-opacity:1;stroke-dasharray:none;stroke-dashoffset:0"
             sodipodi:type="arc" />
          <path
             inkscape:export-ydpi="90"
             inkscape:export-xdpi="90"
             inkscape:export-filename="/home/pv/Desktop/prewiev/sesB3.png"
             transform="matrix(0,-0.7954951,0.7273098,0,881.04903,2318.1875)"
             d="m 2864.4896,259.79434 c 0,3.41709 -2.5326,6.18719 -5.6568,6.18719 -3.1242,0 -5.6569,-2.7701 -5.6569,-6.18719 0,-3.41709 2.5327,-6.18718 5.6569,-6.18718 3.1242,0 5.6568,2.77009 5.6568,6.18718 z"
             sodipodi:ry="6.1871843"
             sodipodi:rx="5.6568542"
             sodipodi:cy="259.79434"
             sodipodi:cx="2858.8328"
             id="path9579-8-5-0-4-3-2"
             style="fill:#000000;fill-opacity:1;fill-rule:nonzero;stroke:#000000;stroke-width:1.31468427;stroke-miterlimit:4;stroke-opacity:1;stroke-dasharray:none;stroke-dashoffset:0"
             sodipodi:type="arc" />
        </g>
      </g>
      <g
         transform="matrix(0.45098763,0,0,0.38715071,-1065.9541,-335.47183)"
         id="g9581-9-6-2-8-2-9"
         inkscape:export-filename="/home/pv/Projects/mpu/src/GUI/images/schema.png"
         inkscape:export-xdpi="90"
         inkscape:export-ydpi="90"
         style="fill:#d2d2d2;fill-opacity:1">
        <rect
           style="fill:#d2d2d2;fill-opacity:1;fill-rule:nonzero;stroke:#d2d2d2;stroke-width:1;stroke-miterlimit:4;stroke-opacity:1;stroke-dasharray:none;stroke-dashoffset:0"
           id="rect9583-6-1-0-8-0-0"
           width="5"
           height="25"
           x="-590.74347"
           y="854.14374"
           inkscape:export-filename="/home/pv/Desktop/prewiev/sesB3.png"
           inkscape:export-xdpi="90"
           inkscape:export-ydpi="90"
           transform="matrix(-0.53502,-0.8448394,0.8448394,-0.53502,0,0)"
           inkscape:transform-center-x="-16.896796"
           inkscape:transform-center-y="-10.700297" />
        <path
           sodipodi:type="arc"
           style="fill:#000000;fill-opacity:1;fill-rule:nonzero;stroke:#d2d2d2;stroke-width:1.31468427;stroke-miterlimit:4;stroke-opacity:1;stroke-dasharray:none;stroke-dashoffset:0"
           id="path9585-4-1-6-8-6-50"
           sodipodi:cx="2858.8328"
           sodipodi:cy="259.79434"
           sodipodi:rx="5.6568542"
           sodipodi:ry="6.1871843"
           d="m 2864.4896,259.79434 c 0,3.41709 -2.5326,6.18719 -5.6568,6.18719 -3.1242,0 -5.6569,-2.7701 -5.6569,-6.18719 0,-3.41709 2.5327,-6.18718 5.6569,-6.18718 3.1242,0 5.6568,2.77009 5.6568,6.18718 z"
           transform="matrix(0,-0.7954951,-0.7273098,0,1218.951,2318.1875)"
           inkscape:export-filename="/home/pv/Desktop/prewiev/sesB3.png"
           inkscape:export-xdpi="90"
           inkscape:export-ydpi="90" />
        <path
           sodipodi:type="arc"
           style="fill:#000000;fill-opacity:1;fill-rule:nonzero;stroke:#d2d2d2;stroke-width:1.31468427;stroke-miterlimit:4;stroke-opacity:1;stroke-dasharray:none;stroke-dashoffset:0"
           id="path9588-3-5-1-68-1-41"
           sodipodi:cx="2858.8328"
           sodipodi:cy="259.79434"
           sodipodi:rx="5.6568542"
           sodipodi:ry="6.1871843"
           d="m 2864.4896,259.79434 c 0,3.41709 -2.5326,6.18719 -5.6568,6.18719 -3.1242,0 -5.6569,-2.7701 -5.6569,-6.18719 0,-3.41709 2.5327,-6.18718 5.6569,-6.18718 3.1242,0 5.6568,2.77009 5.6568,6.18718 z"
           transform="matrix(0,-0.7954951,0.7273098,0,881.04903,2318.1875)"
           inkscape:export-filename="/home/pv/Desktop/prewiev/sesB3.png"
           inkscape:export-xdpi="90"
           inkscape:export-ydpi="90" />
      </g>
    </g>
  </a>
</svg>
