<?xml version="1.0" encoding="UTF-8" standalone="no"?>
<!-- Created with Inkscape (http://www.inkscape.org/) -->

<svg
   xmlns:dc="http://purl.org/dc/elements/1.1/"
   xmlns:cc="http://creativecommons.org/ns#"
   xmlns:rdf="http://www.w3.org/1999/02/22-rdf-syntax-ns#"
   xmlns:svg="http://www.w3.org/2000/svg"
   xmlns="http://www.w3.org/2000/svg"
   xmlns:sodipodi="http://sodipodi.sourceforge.net/DTD/sodipodi-0.dtd"
   xmlns:inkscape="http://www.inkscape.org/namespaces/inkscape"
   width="24mm"
   height="12mm"
   viewBox="0 0 23.999999 12"
   version="1.1"
   id="svg12547"
   inkscape:version="0.92.3 (2405546, 2018-03-11)"
   sodipodi:docname="avt_off.svg">
  <defs
     id="defs12541" />
  <sodipodi:namedview
     id="base"
     pagecolor="#ffffff"
     bordercolor="#666666"
     borderopacity="1.0"
     inkscape:pageopacity="0.0"
     inkscape:pageshadow="2"
     inkscape:zoom="3.6203867"
     inkscape:cx="46.998002"
     inkscape:cy="22.860112"
     inkscape:document-units="mm"
     inkscape:current-layer="layer1"
     showgrid="false"
     inkscape:window-width="1879"
     inkscape:window-height="1025"
     inkscape:window-x="41"
     inkscape:window-y="27"
     inkscape:window-maximized="1"
     fit-margin-top="0"
     fit-margin-left="0"
     fit-margin-right="0"
     fit-margin-bottom="0" />
  <metadata
     id="metadata12544">
    <rdf:RDF>
      <cc:Work
         rdf:about="">
        <dc:format>image/svg+xml</dc:format>
        <dc:type
           rdf:resource="http://purl.org/dc/dcmitype/StillImage" />
        <dc:title></dc:title>
      </cc:Work>
    </rdf:RDF>
  </metadata>
  <g
     inkscape:label="Layer 1"
     inkscape:groupmode="layer"
     id="layer1"
     transform="translate(-0.18055954,-285.09066)">
    <g
       id="g6713-3-3"
       transform="matrix(1.0562543,0,0,1.1821807,637.81746,670.77935)">
      <g
         transform="matrix(0.44598027,0,0,0.38715071,-935.31498,-391.7751)"
         id="g9571-8-9-0-4-6-90"
         inkscape:export-filename="/home/pv/Projects/mpu/src/GUI/images/schema.png"
         inkscape:export-xdpi="90"
         inkscape:export-ydpi="90">
        <g
           id="g9573-8-6-3-2-1-7"
           transform="translate(-280.40556,146.42987)"
           style="fill:#000000;stroke:#000000">
          <rect
             inkscape:transform-center-y="-10.700297"
             inkscape:transform-center-x="-16.896796"
             transform="rotate(-122.34527)"
             inkscape:export-ydpi="90"
             inkscape:export-xdpi="90"
             inkscape:export-filename="/home/pv/Desktop/prewiev/sesB3.png"
             y="854.14374"
             x="-590.74347"
             height="25"
             width="5"
             id="rect9575-3-3-6-2-0-2"
             style="fill:#000000;fill-opacity:1;fill-rule:nonzero;stroke:#000000;stroke-width:1;stroke-miterlimit:4;stroke-dasharray:none;stroke-dashoffset:0;stroke-opacity:1" />
          <ellipse
             ry="6.1871843"
             rx="5.6568542"
             cy="259.79434"
             cx="2858.8328"
             inkscape:export-ydpi="90"
             inkscape:export-xdpi="90"
             inkscape:export-filename="/home/pv/Desktop/prewiev/sesB3.png"
             transform="matrix(0,-0.7954951,-0.7273098,0,1218.951,2318.1875)"
             id="path9577-1-8-1-6-6-7"
             style="fill:#000000;fill-opacity:1;fill-rule:nonzero;stroke:#000000;stroke-width:1.31468427;stroke-miterlimit:4;stroke-dasharray:none;stroke-dashoffset:0;stroke-opacity:1" />
          <ellipse
             ry="6.1871843"
             rx="5.6568542"
             cy="259.79434"
             cx="2858.8328"
             inkscape:export-ydpi="90"
             inkscape:export-xdpi="90"
             inkscape:export-filename="/home/pv/Desktop/prewiev/sesB3.png"
             transform="matrix(0,-0.7954951,0.7273098,0,881.04903,2318.1875)"
             id="path9579-8-5-0-4-3-2"
             style="fill:#000000;fill-opacity:1;fill-rule:nonzero;stroke:#000000;stroke-width:1.31468427;stroke-miterlimit:4;stroke-dasharray:none;stroke-dashoffset:0;stroke-opacity:1" />
        </g>
      </g>
      <g
         transform="matrix(0.45098763,0,0,0.38715071,-1065.9541,-335.47183)"
         id="g9581-9-6-2-8-2-9"
         inkscape:export-filename="/home/pv/Projects/mpu/src/GUI/images/schema.png"
         inkscape:export-xdpi="90"
         inkscape:export-ydpi="90"
         style="fill:#d2d2d2;fill-opacity:1">
        <rect
           style="fill:#d2d2d2;fill-opacity:1;fill-rule:nonzero;stroke:#d2d2d2;stroke-width:1;stroke-miterlimit:4;stroke-dasharray:none;stroke-dashoffset:0;stroke-opacity:1"
           id="rect9583-6-1-0-8-0-0"
           width="5"
           height="25"
           x="-590.74347"
           y="854.14374"
           inkscape:export-filename="/home/pv/Desktop/prewiev/sesB3.png"
           inkscape:export-xdpi="90"
           inkscape:export-ydpi="90"
           transform="rotate(-122.34527)"
           inkscape:transform-center-x="-16.896796"
           inkscape:transform-center-y="-10.700297" />
        <ellipse
           ry="6.1871843"
           rx="5.6568542"
           cy="259.79434"
           cx="2858.8328"
           style="fill:#000000;fill-opacity:1;fill-rule:nonzero;stroke:#d2d2d2;stroke-width:1.31468427;stroke-miterlimit:4;stroke-dasharray:none;stroke-dashoffset:0;stroke-opacity:1"
           id="path9585-4-1-6-8-6-50"
           transform="matrix(0,-0.7954951,-0.7273098,0,1218.951,2318.1875)"
           inkscape:export-filename="/home/pv/Desktop/prewiev/sesB3.png"
           inkscape:export-xdpi="90"
           inkscape:export-ydpi="90" />
        <ellipse
           ry="6.1871843"
           rx="5.6568542"
           cy="259.79434"
           cx="2858.8328"
           style="fill:#000000;fill-opacity:1;fill-rule:nonzero;stroke:#d2d2d2;stroke-width:1.31468427;stroke-miterlimit:4;stroke-dasharray:none;stroke-dashoffset:0;stroke-opacity:1"
           id="path9588-3-5-1-68-1-41"
           transform="matrix(0,-0.7954951,0.7273098,0,881.04903,2318.1875)"
           inkscape:export-filename="/home/pv/Desktop/prewiev/sesB3.png"
           inkscape:export-xdpi="90"
           inkscape:export-ydpi="90" />
      </g>
    </g>
  </g>
</svg>
