<?xml version="1.0" encoding="UTF-8" standalone="no"?>
<!-- Created with Inkscape (http://www.inkscape.org/) -->

<svg
   xmlns:dc="http://purl.org/dc/elements/1.1/"
   xmlns:cc="http://creativecommons.org/ns#"
   xmlns:rdf="http://www.w3.org/1999/02/22-rdf-syntax-ns#"
   xmlns:svg="http://www.w3.org/2000/svg"
   xmlns="http://www.w3.org/2000/svg"
   xmlns:sodipodi="http://sodipodi.sourceforge.net/DTD/sodipodi-0.dtd"
   xmlns:inkscape="http://www.inkscape.org/namespaces/inkscape"
   id="svg4495"
   version="1.1"
   inkscape:version="0.92.3 (2405546, 2018-03-11)"
   width="12"
   height="24"
   sodipodi:docname="avt_v_alarm.svg">
  <metadata
     id="metadata4501">
    <rdf:RDF>
      <cc:Work
         rdf:about="">
        <dc:format>image/svg+xml</dc:format>
        <dc:type
           rdf:resource="http://purl.org/dc/dcmitype/StillImage" />
        <dc:title></dc:title>
      </cc:Work>
    </rdf:RDF>
  </metadata>
  <defs
     id="defs4499" />
  <sodipodi:namedview
     pagecolor="#ffffff"
     bordercolor="#666666"
     borderopacity="1"
     objecttolerance="10"
     gridtolerance="10"
     guidetolerance="10"
     inkscape:pageopacity="0"
     inkscape:pageshadow="2"
     inkscape:window-width="1879"
     inkscape:window-height="1025"
     id="namedview4497"
     showgrid="false"
     inkscape:zoom="6.19455"
     inkscape:cx="-19.907965"
     inkscape:cy="30.010501"
     inkscape:window-x="41"
     inkscape:window-y="27"
     inkscape:window-maximized="1"
     inkscape:current-layer="g8580-9"
     fit-margin-top="0"
     fit-margin-left="0"
     fit-margin-right="0"
     fit-margin-bottom="0" />
  <g
     id="g8580-9"
     transform="matrix(0,2.1247336,-2.1247336,0,-536.27524,2144.4728)"
     inkscape:export-filename="/home/pv/Projects/mpu.balsam/src/GUI/images/avt_on.png"
     inkscape:export-xdpi="90"
     inkscape:export-ydpi="90"
     style="fill:#008000;fill-opacity:1">
    <g
       transform="matrix(0.49719906,0,0,0.55778866,-709.15224,-76.070409)"
       id="g5839"
       inkscape:export-filename="/home/pv/Projects/mpu.balsam/src/GUI/images/avt_prot.png"
       inkscape:export-xdpi="90"
       inkscape:export-ydpi="90">
      <g
         inkscape:export-ydpi="90"
         inkscape:export-xdpi="90"
         inkscape:export-filename="/home/pv/Projects/mpu/src/GUI/images/schema.png"
         id="g9571-8-9-0-4-6-90-7"
         transform="matrix(0.44598027,0,0,0.38715071,-935.31498,-391.7751)">
        <g
           style="fill:#000000;stroke:#000000"
           transform="translate(-280.40556,146.42987)"
           id="g9573-8-6-3-2-1-7-4">
          <rect
             style="fill:#000000;fill-opacity:1;fill-rule:nonzero;stroke:#000000;stroke-width:1;stroke-miterlimit:4;stroke-dasharray:none;stroke-dashoffset:0;stroke-opacity:1"
             id="rect9575-3-3-6-2-0-2-1"
             width="5"
             height="25"
             x="-590.74347"
             y="854.14374"
             inkscape:export-filename="/home/pv/Desktop/prewiev/sesB3.png"
             inkscape:export-xdpi="90"
             inkscape:export-ydpi="90"
             transform="rotate(-122.34527)"
             inkscape:transform-center-x="-16.896796"
             inkscape:transform-center-y="-10.700297" />
          <ellipse
             ry="6.1871843"
             rx="5.6568542"
             cy="259.79434"
             cx="2858.8328"
             style="fill:#000000;fill-opacity:1;fill-rule:nonzero;stroke:#000000;stroke-width:1.31468427;stroke-miterlimit:4;stroke-dasharray:none;stroke-dashoffset:0;stroke-opacity:1"
             id="path9577-1-8-1-6-6-7-3"
             transform="matrix(0,-0.7954951,-0.7273098,0,1218.951,2318.1875)"
             inkscape:export-filename="/home/pv/Desktop/prewiev/sesB3.png"
             inkscape:export-xdpi="90"
             inkscape:export-ydpi="90" />
          <ellipse
             ry="6.1871843"
             rx="5.6568542"
             cy="259.79434"
             cx="2858.8328"
             style="fill:#000000;fill-opacity:1;fill-rule:nonzero;stroke:#000000;stroke-width:1.31468427;stroke-miterlimit:4;stroke-dasharray:none;stroke-dashoffset:0;stroke-opacity:1"
             id="path9579-8-5-0-4-3-2-8"
             transform="matrix(0,-0.7954951,0.7273098,0,881.04903,2318.1875)"
             inkscape:export-filename="/home/pv/Desktop/prewiev/sesB3.png"
             inkscape:export-xdpi="90"
             inkscape:export-ydpi="90" />
        </g>
      </g>
      <g
         id="g5836">
        <rect
           inkscape:transform-center-y="-10.700297"
           inkscape:transform-center-x="-16.896796"
           transform="matrix(-0.59364696,-0.8047256,0.87856494,-0.47762291,0,0)"
           inkscape:export-ydpi="90"
           inkscape:export-xdpi="90"
           inkscape:export-filename="/home/pv/Desktop/prewiev/sesB3.png"
           y="-294.51572"
           x="571.42517"
           height="10.841888"
           width="2.0322466"
           id="rect9583-6-1-0-8-0-0-2"
           style="fill:#ff2a2a;fill-opacity:1;fill-rule:nonzero;stroke:#d2d2d2;stroke-width:0.4198418;stroke-miterlimit:4;stroke-dasharray:none;stroke-dashoffset:0;stroke-opacity:1" />
      </g>
      <ellipse
         ry="6.1871843"
         rx="5.6568542"
         cy="259.79434"
         cx="2858.8328"
         style="fill:#ff2a2a;fill-opacity:1;fill-rule:nonzero;stroke:#d2d2d2;stroke-width:1.31468427;stroke-miterlimit:4;stroke-dasharray:none;stroke-dashoffset:0;stroke-opacity:1"
         id="path9585-4-1-6-8-6-50-3"
         transform="matrix(0,-0.30797649,-0.32800772,0,-516.22228,562.01611)"
         inkscape:export-filename="/home/pv/Desktop/prewiev/sesB3.png"
         inkscape:export-xdpi="90"
         inkscape:export-ydpi="90" />
      <ellipse
         ry="6.1871843"
         rx="5.6568542"
         cy="259.79434"
         cx="2858.8328"
         style="fill:#ff0000;fill-opacity:1;fill-rule:nonzero;stroke:#d2d2d2;stroke-width:1.31468427;stroke-miterlimit:4;stroke-dasharray:none;stroke-dashoffset:0;stroke-opacity:1"
         id="path9588-3-5-1-68-1-41-0"
         transform="matrix(0,-0.30797649,0.32800772,0,-668.61189,562.01611)"
         inkscape:export-filename="/home/pv/Desktop/prewiev/sesB3.png"
         inkscape:export-xdpi="90"
         inkscape:export-ydpi="90" />
    </g>
  </g>
</svg>
