<?xml version="1.0" encoding="UTF-8" standalone="no"?>
<!-- Created with Inkscape (http://www.inkscape.org/) -->

<svg
   xmlns:dc="http://purl.org/dc/elements/1.1/"
   xmlns:cc="http://creativecommons.org/ns#"
   xmlns:rdf="http://www.w3.org/1999/02/22-rdf-syntax-ns#"
   xmlns:svg="http://www.w3.org/2000/svg"
   xmlns="http://www.w3.org/2000/svg"
   xmlns:sodipodi="http://sodipodi.sourceforge.net/DTD/sodipodi-0.dtd"
   xmlns:inkscape="http://www.inkscape.org/namespaces/inkscape"
   width="99.987122"
   height="59.949211"
   id="svg16924"
   version="1.1"
   inkscape:version="0.48.4 r9939"
   sodipodi:docname="ged_on_big.svg">
  <defs
     id="defs16926" />
  <sodipodi:namedview
     id="base"
     pagecolor="#ffffff"
     bordercolor="#666666"
     borderopacity="1.0"
     inkscape:pageopacity="0.0"
     inkscape:pageshadow="2"
     inkscape:zoom="3.959798"
     inkscape:cx="88.083645"
     inkscape:cy="57.902295"
     inkscape:document-units="px"
     inkscape:current-layer="g19478-9-6-3-9"
     showgrid="false"
     fit-margin-top="0"
     fit-margin-left="0"
     fit-margin-right="0"
     fit-margin-bottom="0"
     inkscape:window-width="1920"
     inkscape:window-height="1011"
     inkscape:window-x="-3"
     inkscape:window-y="-3"
     inkscape:window-maximized="1" />
  <metadata
     id="metadata16929">
    <rdf:RDF>
      <cc:Work
         rdf:about="">
        <dc:format>image/svg+xml</dc:format>
        <dc:type
           rdf:resource="http://purl.org/dc/dcmitype/StillImage" />
        <dc:title></dc:title>
      </cc:Work>
    </rdf:RDF>
  </metadata>
  <g
     inkscape:label="Layer 1"
     inkscape:groupmode="layer"
     id="layer1"
     transform="translate(-0.00131543,-992.40126)">
    <path
       inkscape:connector-curvature="0"
       style="fill:#ff2a2a;fill-opacity:1;fill-rule:evenodd;stroke:#b3b3b3;stroke-width:1.13753163999999996;stroke-linecap:butt;stroke-linejoin:miter;stroke-miterlimit:4;stroke-opacity:1;stroke-dasharray:none"
       d="m 90.120962,1015.8986 -64.772594,0 -0.960128,2.8904 0,5.7813 1.067265,2.8908 64.665457,0 0,-11.5625 z"
       id="path19464-7-8-7-0"
       sodipodi:nodetypes="ccccccc"
       inkscape:export-filename="/home/pv/Projects/mpu.balsam/src/GUI/images/ged_on.png"
       inkscape:export-xdpi="90"
       inkscape:export-ydpi="90" />
    <path
       sodipodi:type="arc"
       style="fill:#ff2a2a;fill-opacity:1;fill-rule:nonzero;stroke:#b3b3b3;stroke-width:5.39713287000000008;stroke-miterlimit:4;stroke-opacity:1;stroke-dasharray:none;stroke-dashoffset:0"
       id="path19466-7-0-1-4"
       sodipodi:cx="-197.14285"
       sodipodi:cy="-36.209251"
       sodipodi:rx="46.42857"
       sodipodi:ry="47.142857"
       d="m -150.71428,-36.209251 c 0,26.03628 -20.78678,47.142856 -46.42857,47.142856 -25.64179,0 -46.42857,-21.106576 -46.42857,-47.142856 0,-26.036281 20.78678,-47.142857 46.42857,-47.142857 25.64179,0 46.42857,21.106576 46.42857,47.142857 z"
       transform="matrix(0.54428861,0,0,0.45317713,180.68158,1037.6172)"
       inkscape:export-filename="/home/pv/Projects/mpu.balsam/src/GUI/images/ged_on.png"
       inkscape:export-xdpi="90"
       inkscape:export-ydpi="90" />
    <path
       sodipodi:type="arc"
       style="fill:#ff2a2a;fill-opacity:1;fill-rule:nonzero;stroke:#b3b3b3;stroke-width:7.93497085999999996;stroke-miterlimit:4;stroke-opacity:1;stroke-dasharray:none;stroke-dashoffset:0"
       id="path19468-5-4-1-5"
       sodipodi:cx="-197.14285"
       sodipodi:cy="-36.209251"
       sodipodi:rx="46.42857"
       sodipodi:ry="47.142857"
       d="m -150.71428,-36.209251 c 0,26.03628 -20.78678,47.142856 -46.42857,47.142856 -25.64179,0 -46.42857,-21.106576 -46.42857,-47.142856 0,-26.036281 20.78678,-47.142857 46.42857,-47.142857 25.64179,0 46.42857,21.106576 46.42857,47.142857 z"
       transform="matrix(0.37020899,0,0,0.30823774,146.36322,1032.3691)"
       inkscape:export-filename="/home/pv/Projects/mpu.balsam/src/GUI/images/ged_on.png"
       inkscape:export-xdpi="90"
       inkscape:export-ydpi="90" />
    <g
       id="g19478-9-6-3-9"
       transform="matrix(0.73317406,0,0,0.58520482,-71.299577,671.48848)"
       style="stroke:#b3b3b3;stroke-width:1.49668419;stroke-opacity:1"
       inkscape:export-filename="/home/pv/Projects/mpu.balsam/src/GUI/images/ged_on.png"
       inkscape:export-xdpi="90"
       inkscape:export-ydpi="90">
      <path
         inkscape:connector-curvature="0"
         sodipodi:nodetypes="cccccc"
         id="path19480-3-0-8-5"
         d="m 102.98858,591.57817 -4.3992,7.99937 4.3992,7.99939 21.63294,0 0,-15.99876 -21.63294,0 z"
         style="fill:#ff2a2a;fill-opacity:1;fill-rule:evenodd;stroke:#b3b3b3;stroke-width:2.99521446000000013;stroke-linecap:butt;stroke-linejoin:miter;stroke-miterlimit:4;stroke-opacity:1;stroke-dasharray:none" />
      <g
         transform="translate(-13.20742,231.11153)"
         id="g19482-6-9-7-4"
         style="fill:#ff2a2a;stroke:#b3b3b3;stroke-width:1.49668419000000008;stroke-opacity:1;fill-opacity:1">
        <path
           inkscape:connector-curvature="0"
           transform="matrix(0.8140419,0,0,4.9964895,25.761411,-1433.8839)"
           style="fill:#ff2a2a;fill-opacity:1;stroke:#b3b3b3;stroke-width:1.50945770999999995;stroke-miterlimit:4;stroke-opacity:1"
           d="m 124.27402,350.81289 c 25.82855,0 5.3779,5.85858 5.3779,7.5458 l -10.75581,0 c 0,-1.72995 -20.757726,-7.5458 5.37791,-7.5458 z"
           id="path19484-8-7-4-4"
           sodipodi:nodetypes="cccz" />
        <path
           inkscape:connector-curvature="0"
           style="fill:#ff2a2a;fill-opacity:1;stroke:#b3b3b3;stroke-width:3.04422521999999995;stroke-miterlimit:4;stroke-opacity:1"
           d="m 126.92567,417.98301 c 21.02552,0 4.37784,-29.27233 4.37784,-37.70251 l -8.75568,0 c 0,8.64368 -16.89766,37.70251 4.37784,37.70251 z"
           id="path19486-0-5-9-2"
           sodipodi:nodetypes="cccz" />
      </g>
    </g>
  </g>
</svg>
