<?xml version="1.0" encoding="UTF-8" standalone="no"?>
<!-- Created with Inkscape (http://www.inkscape.org/) -->

<svg
   xmlns:dc="http://purl.org/dc/elements/1.1/"
   xmlns:cc="http://creativecommons.org/ns#"
   xmlns:rdf="http://www.w3.org/1999/02/22-rdf-syntax-ns#"
   xmlns:svg="http://www.w3.org/2000/svg"
   xmlns="http://www.w3.org/2000/svg"
   xmlns:sodipodi="http://sodipodi.sourceforge.net/DTD/sodipodi-0.dtd"
   xmlns:inkscape="http://www.inkscape.org/namespaces/inkscape"
   width="24"
   height="23"
   id="svg18690"
   version="1.1"
   inkscape:version="0.48.4 r9939"
   sodipodi:docname="trans_off_big.svg">
  <defs
     id="defs18692" />
  <sodipodi:namedview
     id="base"
     pagecolor="#ffffff"
     bordercolor="#666666"
     borderopacity="1.0"
     inkscape:pageopacity="0.0"
     inkscape:pageshadow="2"
     inkscape:zoom="7.9195959"
     inkscape:cx="15.552532"
     inkscape:cy="16.919049"
     inkscape:document-units="px"
     inkscape:current-layer="layer1"
     showgrid="false"
     fit-margin-top="0"
     fit-margin-left="0"
     fit-margin-right="0"
     fit-margin-bottom="0"
     inkscape:window-width="1024"
     inkscape:window-height="699"
     inkscape:window-x="-3"
     inkscape:window-y="-3"
     inkscape:window-maximized="1" />
  <metadata
     id="metadata18695">
    <rdf:RDF>
      <cc:Work
         rdf:about="">
        <dc:format>image/svg+xml</dc:format>
        <dc:type
           rdf:resource="http://purl.org/dc/dcmitype/StillImage" />
        <dc:title></dc:title>
      </cc:Work>
    </rdf:RDF>
  </metadata>
  <g
     inkscape:label="Layer 1"
     inkscape:groupmode="layer"
     id="layer1"
     transform="translate(0.02702871,-1029.5284)">
    <path
       inkscape:connector-curvature="0"
       style="fill:#000000;fill-opacity:1;fill-rule:nonzero;stroke:none"
       d="m 14.704566,1046.331 c 0,3.5029 -3.177165,6.346 -7.091945,6.346 -3.9146793,0 -7.09184509,-2.8431 -7.09184509,-6.346 0,-3.5031 3.17716579,-6.3462 7.09184509,-6.3462 3.91478,0 7.091945,2.8431 7.091945,6.3462 z m -1.18199,0 c 0,-2.9193 -2.647673,-5.2885 -5.909955,-5.2885 -3.2621829,0 -5.9098543,2.3692 -5.9098543,5.2885 0,2.9191 2.6476714,5.2884 5.9098543,5.2884 3.262282,0 5.909955,-2.3693 5.909955,-5.2884 z"
       id="path20938-0-0-6"
       inkscape:export-filename="/home/pv/Projects/mpu.balsam/src/GUI/images/schema.png"
       inkscape:export-xdpi="90"
       inkscape:export-ydpi="90" />
    <path
       inkscape:connector-curvature="0"
       style="fill:#000000;fill-opacity:1;fill-rule:nonzero;stroke:none"
       d="m 14.704566,1036.8119 c 0,3.5029 -3.177165,6.3459 -7.091945,6.3459 -3.9146793,0 -7.09184509,-2.843 -7.09184509,-6.3459 0,-3.5031 3.17716579,-6.3462 7.09184509,-6.3462 3.91478,0 7.091945,2.8431 7.091945,6.3462 z m -1.18199,0 c 0,-2.9193 -2.647673,-5.2884 -5.909955,-5.2884 -3.2621829,0 -5.9098543,2.3691 -5.9098543,5.2884 0,2.919 2.6476714,5.2883 5.9098543,5.2883 3.262282,0 5.909955,-2.3693 5.909955,-5.2883 z"
       id="path20940-4-4-4"
       inkscape:export-filename="/home/pv/Projects/mpu.balsam/src/GUI/images/schema.png"
       inkscape:export-xdpi="90"
       inkscape:export-ydpi="90" />
    <path
       inkscape:connector-curvature="0"
       style="fill:#000000;fill-opacity:1;fill-rule:nonzero;stroke:none"
       d="m 23.963312,1041.5714 c 0,3.5031 -3.177067,6.346 -7.091845,6.346 -3.91468,0 -7.091846,-2.8429 -7.091846,-6.346 0,-3.5031 3.177166,-6.3462 7.091846,-6.3462 3.914778,0 7.091845,2.8431 7.091845,6.3462 z m -1.181892,0 c 0,-2.9193 -2.647671,-5.2885 -5.909953,-5.2885 -3.262284,0 -5.909954,2.3692 -5.909954,5.2885 0,2.9191 2.64767,5.2883 5.909954,5.2883 3.262282,0 5.909953,-2.3692 5.909953,-5.2883 z"
       id="path20942-6-6-4"
       inkscape:export-filename="/home/pv/Projects/mpu.balsam/src/GUI/images/schema.png"
       inkscape:export-xdpi="90"
       inkscape:export-ydpi="90" />
    <path
       inkscape:connector-curvature="0"
       id="path20944-2-2-3"
       d="m 14.166421,1045.7909 c 0,3.5031 -3.177166,6.3463 -7.0919451,6.3463 -3.9146795,0 -7.09184538,-2.8432 -7.09184538,-6.3463 0,-3.5029 3.17716588,-6.3459 7.09184538,-6.3459 3.9147791,0 7.0919451,2.843 7.0919451,6.3459 z m -1.181991,0 c 0,-2.919 -2.647671,-5.2883 -5.9099541,-5.2883 -3.2621832,0 -5.9098546,2.3693 -5.9098546,5.2883 0,2.9194 2.6476714,5.2885 5.9098546,5.2885 3.2622831,0 5.9099541,-2.3691 5.9099541,-5.2885 z"
       style="fill:#d2d2d2;fill-opacity:1;fill-rule:nonzero;stroke:none"
       inkscape:export-filename="/home/pv/Projects/mpu.balsam/src/GUI/images/schema.png"
       inkscape:export-xdpi="90"
       inkscape:export-ydpi="90" />
    <path
       inkscape:connector-curvature="0"
       id="path20950-6-7-3"
       d="m 14.166421,1036.2719 c 0,3.5031 -3.177166,6.3461 -7.0919451,6.3461 -3.9146795,0 -7.09184538,-2.843 -7.09184538,-6.3461 0,-3.503 3.17716588,-6.3461 7.09184538,-6.3461 3.9147791,0 7.0919451,2.8431 7.0919451,6.3461 z m -1.181991,0 c 0,-2.9192 -2.647671,-5.2885 -5.9099541,-5.2885 -3.2621832,0 -5.9098546,2.3693 -5.9098546,5.2885 0,2.9192 2.6476714,5.2884 5.9098546,5.2884 3.2622831,0 5.9099541,-2.3692 5.9099541,-5.2884 z"
       style="fill:#d2d2d2;fill-opacity:1;fill-rule:nonzero;stroke:none"
       inkscape:export-filename="/home/pv/Projects/mpu.balsam/src/GUI/images/schema.png"
       inkscape:export-xdpi="90"
       inkscape:export-ydpi="90" />
    <path
       inkscape:connector-curvature="0"
       id="path20954-87-6-7"
       d="m 23.425266,1041.0314 c 0,3.5031 -3.177166,6.3462 -7.091944,6.3462 -3.91468,0 -7.0918462,-2.8431 -7.0918462,-6.3462 0,-3.503 3.1771662,-6.346 7.0918462,-6.346 3.914778,0 7.091944,2.843 7.091944,6.346 z m -1.181991,0 c 0,-2.9191 -2.647671,-5.2883 -5.909953,-5.2883 -3.262184,0 -5.909855,2.3692 -5.909855,5.2883 0,2.9193 2.647671,5.2885 5.909855,5.2885 3.262282,0 5.909953,-2.3692 5.909953,-5.2885 z"
       style="fill:#d2d2d2;fill-opacity:1;fill-rule:nonzero;stroke:none"
       inkscape:export-filename="/home/pv/Projects/mpu.balsam/src/GUI/images/schema.png"
       inkscape:export-xdpi="90"
       inkscape:export-ydpi="90" />
    <path
       inkscape:connector-curvature="0"
       id="path20958-8-8-1"
       style="fill:none;stroke:#000000;stroke-width:0.83976412;stroke-linecap:butt;stroke-linejoin:miter;stroke-miterlimit:4;stroke-opacity:1;stroke-dasharray:none"
       d="m 7.1734145,1048.4954 0,-2.0974 2.4560589,-2.0976 m -2.4560589,2.0976 -2.2318317,-2.0976"
       sodipodi:nodetypes="ccccc"
       inkscape:export-filename="/home/pv/Projects/mpu.balsam/src/GUI/images/schema.png"
       inkscape:export-xdpi="90"
       inkscape:export-ydpi="90" />
    <path
       inkscape:connector-curvature="0"
       sodipodi:nodetypes="ccccc"
       d="m 6.749421,1048.2035 0,-2.0973 2.4560594,-2.0975 m -2.4560594,2.0975 -2.2318318,-2.0975"
       style="fill:none;stroke:#d2d2d2;stroke-width:0.83976412;stroke-linecap:butt;stroke-linejoin:miter;stroke-miterlimit:4;stroke-opacity:1;stroke-dasharray:none"
       id="path20960-2-7-7"
       inkscape:export-filename="/home/pv/Projects/mpu.balsam/src/GUI/images/schema.png"
       inkscape:export-xdpi="90"
       inkscape:export-ydpi="90" />
    <path
       inkscape:connector-curvature="0"
       sodipodi:nodetypes="ccccc"
       d="m 16.614923,1043.4904 0,-2.0974 2.456059,-2.0975 m -2.456059,2.0975 -2.231831,-2.0975"
       style="fill:none;stroke:#000000;stroke-width:0.83976412;stroke-linecap:butt;stroke-linejoin:miter;stroke-miterlimit:4;stroke-opacity:1;stroke-dasharray:none"
       id="path20962-9-2-9"
       inkscape:export-filename="/home/pv/Projects/mpu.balsam/src/GUI/images/schema.png"
       inkscape:export-xdpi="90"
       inkscape:export-ydpi="90" />
    <path
       inkscape:connector-curvature="0"
       id="path20964-9-8-5"
       style="fill:none;stroke:#d2d2d2;stroke-width:0.83976412;stroke-linecap:butt;stroke-linejoin:miter;stroke-miterlimit:4;stroke-opacity:1;stroke-dasharray:none"
       d="m 16.239852,1043.184 0,-2.0974 2.456059,-2.0974 m -2.456059,2.0974 -2.231832,-2.0974"
       sodipodi:nodetypes="ccccc"
       inkscape:export-filename="/home/pv/Projects/mpu.balsam/src/GUI/images/schema.png"
       inkscape:export-xdpi="90"
       inkscape:export-ydpi="90" />
    <path
       inkscape:connector-curvature="0"
       id="path20958-8-8-1-0"
       style="fill:none;stroke:#000000;stroke-width:0.83976412;stroke-linecap:butt;stroke-linejoin:miter;stroke-miterlimit:4;stroke-opacity:1;stroke-dasharray:none"
       d="m 7.1170641,1038.0874 0,-2.0976 2.456059,-2.0974 m -2.456059,2.0974 -2.2318316,-2.0974"
       sodipodi:nodetypes="ccccc"
       inkscape:export-filename="/home/pv/Projects/mpu.balsam/src/GUI/images/schema.png"
       inkscape:export-xdpi="90"
       inkscape:export-ydpi="90" />
    <path
       inkscape:connector-curvature="0"
       sodipodi:nodetypes="ccccc"
       d="m 6.6930707,1037.7956 0,-2.0976 2.456059,-2.0974 m -2.456059,2.0974 -2.2318316,-2.0974"
       style="fill:none;stroke:#d2d2d2;stroke-width:0.83976412;stroke-linecap:butt;stroke-linejoin:miter;stroke-miterlimit:4;stroke-opacity:1;stroke-dasharray:none"
       id="path20960-2-7-7-3"
       inkscape:export-filename="/home/pv/Projects/mpu.balsam/src/GUI/images/schema.png"
       inkscape:export-xdpi="90"
       inkscape:export-ydpi="90" />
  </g>
</svg>
